{
    "appid": "wxe30a6dfebea8c89b",
    "compileType": "miniprogram",
    "libVersion": "2.31.0",
    "packOptions": {
        "ignore": [],
        "include": []
    },
    "setting": {
        "coverView": true,
        "es6": true,
        "postcss": true,
        "minified": true,
        "enhance": true,
        "showShadowRootInWxmlPanel": true,
        "packNpmRelationList": [],
        "babelSetting": {
            "ignore": [],
            "disablePlugins": [],
            "outputPath": ""
        },
        "condition": false
    },
    "condition": {},
    "editorSetting": {
        "tabIndent": "auto",
        "tabSize": 4
    }
}